#separator \x09
#set_separator	,
#empty_field	(empty)
#unset_field	-
#path	tunnel
#open	2018-10-09-16-06-14
#fields	ts	uid	id.orig_h	id.orig_p	id.resp_h	id.resp_p	tunnel_type	action
#types	time	string	addr	port	addr	port	enum	enum
1439068617.599252	##UID##	##ID_Orig_H##	##ID_Orig_P##	##ID_Resp_H##	##ID_Resp_P##	##Tunnel_Type##	##Action##
#close	2018-10-09-16-06-28
